{
  "data" : {
    "items" : [ {
      "external_urls" : {
        "spotify" : "https://open.spotify.com/artist/6USv9qhCn6zfxlBQIYJ9qs"
      },
      "followers" : {
        "href" : null,
        "total" : 0
      },
      "genres" : [ "alternative pop rock", "pov: indie" ],
      "href" : "https://api.spotify.com/v1/artists/6USv9qhCn6zfxlBQIYJ9qs",
      "id" : "6USv9qhCn6zfxlBQIYJ9qs",
      "images" : [ {
        "height" : 640,
        "url" : "https://i.scdn.co/image/ab6761610000e5ebbe491d3676793a1697c61254",
        "width" : 640
      }, {
        "height" : 320,
        "url" : "https://i.scdn.co/image/ab67616100005174be491d3676793a1697c61254",
        "width" : 320
      }, {
        "height" : 160,
        "url" : "https://i.scdn.co/image/ab6761610000f178be491d3676793a1697c61254",
        "width" : 160
      } ],
      "name" : "Dominic Fike",
      "popularity" : 74,
      "type" : "artist",
      "uri" : "spotify:artist:6USv9qhCn6zfxlBQIYJ9qs"
    }, {
      "external_urls" : {
        "spotify" : "https://open.spotify.com/artist/5f7VJjfbwm532GiveGC0ZK"
      },
      "followers" : {
        "href" : null,
        "total" : 0
      },
      "genres" : [ "atl hip hop", "atl trap", "rap", "trap" ],
      "href" : "https://api.spotify.com/v1/artists/5f7VJjfbwm532GiveGC0ZK",
      "id" : "5f7VJjfbwm532GiveGC0ZK",
      "images" : [ {
        "height" : 640,
        "url" : "https://i.scdn.co/image/ab6761610000e5eb6cad3eff5adc29e20f189a6c",
        "width" : 640
      }, {
        "height" : 320,
        "url" : "https://i.scdn.co/image/ab676161000051746cad3eff5adc29e20f189a6c",
        "width" : 320
      }, {
        "height" : 160,
        "url" : "https://i.scdn.co/image/ab6761610000f1786cad3eff5adc29e20f189a6c",
        "width" : 160
      } ],
      "name" : "Lil Baby",
      "popularity" : 84,
      "type" : "artist",
      "uri" : "spotify:artist:5f7VJjfbwm532GiveGC0ZK"
    }, {
      "external_urls" : {
        "spotify" : "https://open.spotify.com/artist/4vGrte8FDu062Ntj0RsPiZ"
      },
      "followers" : {
        "href" : null,
        "total" : 0
      },
      "genres" : [ "instrumental rock" ],
      "href" : "https://api.spotify.com/v1/artists/4vGrte8FDu062Ntj0RsPiZ",
      "id" : "4vGrte8FDu062Ntj0RsPiZ",
      "images" : [ {
        "height" : 640,
        "url" : "https://i.scdn.co/image/ab6761610000e5ebd0d5560f6b2ebe39a6d20704",
        "width" : 640
      }, {
        "height" : 320,
        "url" : "https://i.scdn.co/image/ab67616100005174d0d5560f6b2ebe39a6d20704",
        "width" : 320
      }, {
        "height" : 160,
        "url" : "https://i.scdn.co/image/ab6761610000f178d0d5560f6b2ebe39a6d20704",
        "width" : 160
      } ],
      "name" : "Polyphia",
      "popularity" : 61,
      "type" : "artist",
      "uri" : "spotify:artist:4vGrte8FDu062Ntj0RsPiZ"
    }, {
      "external_urls" : {
        "spotify" : "https://open.spotify.com/artist/5SXuuuRpukkTvsLuUknva1"
      },
      "followers" : {
        "href" : null,
        "total" : 0
      },
      "genres" : [ "hip hop", "rap" ],
      "href" : "https://api.spotify.com/v1/artists/5SXuuuRpukkTvsLuUknva1",
      "id" : "5SXuuuRpukkTvsLuUknva1",
      "images" : [ {
        "height" : 640,
        "url" : "https://i.scdn.co/image/ab6761610000e5ebd6f2323c1971fd5a70cd0255",
        "width" : 640
      }, {
        "height" : 320,
        "url" : "https://i.scdn.co/image/ab67616100005174d6f2323c1971fd5a70cd0255",
        "width" : 320
      }, {
        "height" : 160,
        "url" : "https://i.scdn.co/image/ab6761610000f178d6f2323c1971fd5a70cd0255",
        "width" : 160
      } ],
      "name" : "Baby Keem",
      "popularity" : 76,
      "type" : "artist",
      "uri" : "spotify:artist:5SXuuuRpukkTvsLuUknva1"
    }, {
      "external_urls" : {
        "spotify" : "https://open.spotify.com/artist/3hOdow4ZPmrby7Q1wfPLEy"
      },
      "followers" : {
        "href" : null,
        "total" : 0
      },
      "genres" : [ ],
      "href" : "https://api.spotify.com/v1/artists/3hOdow4ZPmrby7Q1wfPLEy",
      "id" : "3hOdow4ZPmrby7Q1wfPLEy",
      "images" : [ {
        "height" : 640,
        "url" : "https://i.scdn.co/image/ab6761610000e5ebf8c9dc118374b25e9829e86f",
        "width" : 640
      }, {
        "height" : 320,
        "url" : "https://i.scdn.co/image/ab67616100005174f8c9dc118374b25e9829e86f",
        "width" : 320
      }, {
        "height" : 160,
        "url" : "https://i.scdn.co/image/ab6761610000f178f8c9dc118374b25e9829e86f",
        "width" : 160
      } ],
      "name" : "Aries",
      "popularity" : 55,
      "type" : "artist",
      "uri" : "spotify:artist:3hOdow4ZPmrby7Q1wfPLEy"
    }, {
      "external_urls" : {
        "spotify" : "https://open.spotify.com/artist/6U3ybJ9UHNKEdsH7ktGBZ7"
      },
      "followers" : {
        "href" : null,
        "total" : 0
      },
      "genres" : [ "hip hop", "pop rap", "rap", "underground hip hop" ],
      "href" : "https://api.spotify.com/v1/artists/6U3ybJ9UHNKEdsH7ktGBZ7",
      "id" : "6U3ybJ9UHNKEdsH7ktGBZ7",
      "images" : [ {
        "height" : 640,
        "url" : "https://i.scdn.co/image/ab6761610000e5eb8f0270ec23a53f3c1fe91849",
        "width" : 640
      }, {
        "height" : 320,
        "url" : "https://i.scdn.co/image/ab676161000051748f0270ec23a53f3c1fe91849",
        "width" : 320
      }, {
        "height" : 160,
        "url" : "https://i.scdn.co/image/ab6761610000f1788f0270ec23a53f3c1fe91849",
        "width" : 160
      } ],
      "name" : "JID",
      "popularity" : 75,
      "type" : "artist",
      "uri" : "spotify:artist:6U3ybJ9UHNKEdsH7ktGBZ7"
    }, {
      "external_urls" : {
        "spotify" : "https://open.spotify.com/artist/3TVXtAsR1Inumwj472S9r4"
      },
      "followers" : {
        "href" : null,
        "total" : 0
      },
      "genres" : [ "canadian hip hop", "canadian pop", "hip hop", "pop rap", "rap" ],
      "href" : "https://api.spotify.com/v1/artists/3TVXtAsR1Inumwj472S9r4",
      "id" : "3TVXtAsR1Inumwj472S9r4",
      "images" : [ {
        "height" : 640,
        "url" : "https://i.scdn.co/image/ab6761610000e5eb4293385d324db8558179afd9",
        "width" : 640
      }, {
        "height" : 320,
        "url" : "https://i.scdn.co/image/ab676161000051744293385d324db8558179afd9",
        "width" : 320
      }, {
        "height" : 160,
        "url" : "https://i.scdn.co/image/ab6761610000f1784293385d324db8558179afd9",
        "width" : 160
      } ],
      "name" : "Drake",
      "popularity" : 95,
      "type" : "artist",
      "uri" : "spotify:artist:3TVXtAsR1Inumwj472S9r4"
    }, {
      "external_urls" : {
        "spotify" : "https://open.spotify.com/artist/7ItbAZITSFxSy5LJChXe18"
      },
      "followers" : {
        "href" : null,
        "total" : 0
      },
      "genres" : [ "vapor twitch" ],
      "href" : "https://api.spotify.com/v1/artists/7ItbAZITSFxSy5LJChXe18",
      "id" : "7ItbAZITSFxSy5LJChXe18",
      "images" : [ {
        "height" : 640,
        "url" : "https://i.scdn.co/image/ab6761610000e5eb190f89e50cecaeaee5c50a35",
        "width" : 640
      }, {
        "height" : 320,
        "url" : "https://i.scdn.co/image/ab67616100005174190f89e50cecaeaee5c50a35",
        "width" : 320
      }, {
        "height" : 160,
        "url" : "https://i.scdn.co/image/ab6761610000f178190f89e50cecaeaee5c50a35",
        "width" : 160
      } ],
      "name" : "ford.",
      "popularity" : 48,
      "type" : "artist",
      "uri" : "spotify:artist:7ItbAZITSFxSy5LJChXe18"
    }, {
      "external_urls" : {
        "spotify" : "https://open.spotify.com/artist/4KoNbDwbCK9D04dSmYG93E"
      },
      "followers" : {
        "href" : null,
        "total" : 0
      },
      "genres" : [ ],
      "href" : "https://api.spotify.com/v1/artists/4KoNbDwbCK9D04dSmYG93E",
      "id" : "4KoNbDwbCK9D04dSmYG93E",
      "images" : [ {
        "height" : 640,
        "url" : "https://i.scdn.co/image/ab6761610000e5eb3f2a2cb7483dcc157c697618",
        "width" : 640
      }, {
        "height" : 320,
        "url" : "https://i.scdn.co/image/ab676161000051743f2a2cb7483dcc157c697618",
        "width" : 320
      }, {
        "height" : 160,
        "url" : "https://i.scdn.co/image/ab6761610000f1783f2a2cb7483dcc157c697618",
        "width" : 160
      } ],
      "name" : "ATO",
      "popularity" : 33,
      "type" : "artist",
      "uri" : "spotify:artist:4KoNbDwbCK9D04dSmYG93E"
    }, {
      "external_urls" : {
        "spotify" : "https://open.spotify.com/artist/2YZyLoL8N0Wb9xBt1NhZWg"
      },
      "followers" : {
        "href" : null,
        "total" : 0
      },
      "genres" : [ "conscious hip hop", "hip hop", "rap", "west coast rap" ],
      "href" : "https://api.spotify.com/v1/artists/2YZyLoL8N0Wb9xBt1NhZWg",
      "id" : "2YZyLoL8N0Wb9xBt1NhZWg",
      "images" : [ {
        "height" : 640,
        "url" : "https://i.scdn.co/image/ab6761610000e5eb437b9e2a82505b3d93ff1022",
        "width" : 640
      }, {
        "height" : 320,
        "url" : "https://i.scdn.co/image/ab67616100005174437b9e2a82505b3d93ff1022",
        "width" : 320
      }, {
        "height" : 160,
        "url" : "https://i.scdn.co/image/ab6761610000f178437b9e2a82505b3d93ff1022",
        "width" : 160
      } ],
      "name" : "Kendrick Lamar",
      "popularity" : 86,
      "type" : "artist",
      "uri" : "spotify:artist:2YZyLoL8N0Wb9xBt1NhZWg"
    }, {
      "external_urls" : {
        "spotify" : "https://open.spotify.com/artist/5K4W6rqBFWDnAN6FQUkS6x"
      },
      "followers" : {
        "href" : null,
        "total" : 0
      },
      "genres" : [ "chicago rap", "hip hop", "rap" ],
      "href" : "https://api.spotify.com/v1/artists/5K4W6rqBFWDnAN6FQUkS6x",
      "id" : "5K4W6rqBFWDnAN6FQUkS6x",
      "images" : [ {
        "height" : 640,
        "url" : "https://i.scdn.co/image/ab6761610000e5eb867008a971fae0f4d913f63a",
        "width" : 640
      }, {
        "height" : 320,
        "url" : "https://i.scdn.co/image/ab67616100005174867008a971fae0f4d913f63a",
        "width" : 320
      }, {
        "height" : 160,
        "url" : "https://i.scdn.co/image/ab6761610000f178867008a971fae0f4d913f63a",
        "width" : 160
      } ],
      "name" : "Kanye West",
      "popularity" : 89,
      "type" : "artist",
      "uri" : "spotify:artist:5K4W6rqBFWDnAN6FQUkS6x"
    }, {
      "external_urls" : {
        "spotify" : "https://open.spotify.com/artist/4LLpKhyESsyAXpc4laK94U"
      },
      "followers" : {
        "href" : null,
        "total" : 0
      },
      "genres" : [ "hip hop", "pittsburgh rap", "pop rap", "rap" ],
      "href" : "https://api.spotify.com/v1/artists/4LLpKhyESsyAXpc4laK94U",
      "id" : "4LLpKhyESsyAXpc4laK94U",
      "images" : [ {
        "height" : 640,
        "url" : "https://i.scdn.co/image/ab6761610000e5ebed3b89aa602145fde71a163a",
        "width" : 640
      }, {
        "height" : 320,
        "url" : "https://i.scdn.co/image/ab67616100005174ed3b89aa602145fde71a163a",
        "width" : 320
      }, {
        "height" : 160,
        "url" : "https://i.scdn.co/image/ab6761610000f178ed3b89aa602145fde71a163a",
        "width" : 160
      } ],
      "name" : "Mac Miller",
      "popularity" : 80,
      "type" : "artist",
      "uri" : "spotify:artist:4LLpKhyESsyAXpc4laK94U"
    }, {
      "external_urls" : {
        "spotify" : "https://open.spotify.com/artist/0Y5tJX1MQlPlqiwlOH1tJY"
      },
      "followers" : {
        "href" : null,
        "total" : 0
      },
      "genres" : [ "hip hop", "rap", "slap house" ],
      "href" : "https://api.spotify.com/v1/artists/0Y5tJX1MQlPlqiwlOH1tJY",
      "id" : "0Y5tJX1MQlPlqiwlOH1tJY",
      "images" : [ {
        "height" : 640,
        "url" : "https://i.scdn.co/image/ab6761610000e5eb19c2790744c792d05570bb71",
        "width" : 640
      }, {
        "height" : 320,
        "url" : "https://i.scdn.co/image/ab6761610000517419c2790744c792d05570bb71",
        "width" : 320
      }, {
        "height" : 160,
        "url" : "https://i.scdn.co/image/ab6761610000f17819c2790744c792d05570bb71",
        "width" : 160
      } ],
      "name" : "Travis Scott",
      "popularity" : 90,
      "type" : "artist",
      "uri" : "spotify:artist:0Y5tJX1MQlPlqiwlOH1tJY"
    }, {
      "external_urls" : {
        "spotify" : "https://open.spotify.com/artist/18CPEToK1OfjJ5B5vDBDKa"
      },
      "followers" : {
        "href" : null,
        "total" : 0
      },
      "genres" : [ ],
      "href" : "https://api.spotify.com/v1/artists/18CPEToK1OfjJ5B5vDBDKa",
      "id" : "18CPEToK1OfjJ5B5vDBDKa",
      "images" : [ {
        "height" : 640,
        "url" : "https://i.scdn.co/image/ab6761610000e5ebfb7fbb2b237ef79b57b5fd8b",
        "width" : 640
      }, {
        "height" : 320,
        "url" : "https://i.scdn.co/image/ab67616100005174fb7fbb2b237ef79b57b5fd8b",
        "width" : 320
      }, {
        "height" : 160,
        "url" : "https://i.scdn.co/image/ab6761610000f178fb7fbb2b237ef79b57b5fd8b",
        "width" : 160
      } ],
      "name" : "Weston Estate",
      "popularity" : 51,
      "type" : "artist",
      "uri" : "spotify:artist:18CPEToK1OfjJ5B5vDBDKa"
    }, {
      "external_urls" : {
        "spotify" : "https://open.spotify.com/artist/1t20wYnTiAT0Bs7H1hv9Wt"
      },
      "followers" : {
        "href" : null,
        "total" : 0
      },
      "genres" : [ "indie poptimism" ],
      "href" : "https://api.spotify.com/v1/artists/1t20wYnTiAT0Bs7H1hv9Wt",
      "id" : "1t20wYnTiAT0Bs7H1hv9Wt",
      "images" : [ {
        "height" : 640,
        "url" : "https://i.scdn.co/image/ab6761610000e5eb4c32f7043d79950ca79a7b0c",
        "width" : 640
      }, {
        "height" : 320,
        "url" : "https://i.scdn.co/image/ab676161000051744c32f7043d79950ca79a7b0c",
        "width" : 320
      }, {
        "height" : 160,
        "url" : "https://i.scdn.co/image/ab6761610000f1784c32f7043d79950ca79a7b0c",
        "width" : 160
      } ],
      "name" : "EDEN",
      "popularity" : 58,
      "type" : "artist",
      "uri" : "spotify:artist:1t20wYnTiAT0Bs7H1hv9Wt"
    }, {
      "external_urls" : {
        "spotify" : "https://open.spotify.com/artist/2h93pZq0e7k5yf4dywlkpM"
      },
      "followers" : {
        "href" : null,
        "total" : 0
      },
      "genres" : [ "lgbtq+ hip hop", "neo soul" ],
      "href" : "https://api.spotify.com/v1/artists/2h93pZq0e7k5yf4dywlkpM",
      "id" : "2h93pZq0e7k5yf4dywlkpM",
      "images" : [ {
        "height" : 640,
        "url" : "https://i.scdn.co/image/ab6761610000e5ebee3123e593174208f9754fab",
        "width" : 640
      }, {
        "height" : 320,
        "url" : "https://i.scdn.co/image/ab67616100005174ee3123e593174208f9754fab",
        "width" : 320
      }, {
        "height" : 160,
        "url" : "https://i.scdn.co/image/ab6761610000f178ee3123e593174208f9754fab",
        "width" : 160
      } ],
      "name" : "Frank Ocean",
      "popularity" : 82,
      "type" : "artist",
      "uri" : "spotify:artist:2h93pZq0e7k5yf4dywlkpM"
    }, {
      "external_urls" : {
        "spotify" : "https://open.spotify.com/artist/4V8LLVI7PbaPR0K2TGSxFF"
      },
      "followers" : {
        "href" : null,
        "total" : 0
      },
      "genres" : [ "hip hop", "rap" ],
      "href" : "https://api.spotify.com/v1/artists/4V8LLVI7PbaPR0K2TGSxFF",
      "id" : "4V8LLVI7PbaPR0K2TGSxFF",
      "images" : [ {
        "height" : 640,
        "url" : "https://i.scdn.co/image/ab6761610000e5eb8278b782cbb5a3963db88ada",
        "width" : 640
      }, {
        "height" : 320,
        "url" : "https://i.scdn.co/image/ab676161000051748278b782cbb5a3963db88ada",
        "width" : 320
      }, {
        "height" : 160,
        "url" : "https://i.scdn.co/image/ab6761610000f1788278b782cbb5a3963db88ada",
        "width" : 160
      } ],
      "name" : "Tyler, The Creator",
      "popularity" : 82,
      "type" : "artist",
      "uri" : "spotify:artist:4V8LLVI7PbaPR0K2TGSxFF"
    }, {
      "external_urls" : {
        "spotify" : "https://open.spotify.com/artist/4yvcSjfu4PC0CYQyLy4wSq"
      },
      "followers" : {
        "href" : null,
        "total" : 0
      },
      "genres" : [ "gauze pop", "indietronica", "modern rock", "pov: indie", "shiver pop" ],
      "href" : "https://api.spotify.com/v1/artists/4yvcSjfu4PC0CYQyLy4wSq",
      "id" : "4yvcSjfu4PC0CYQyLy4wSq",
      "images" : [ {
        "height" : 640,
        "url" : "https://i.scdn.co/image/ab6761610000e5eb66b27eccb69756f8eceabc23",
        "width" : 640
      }, {
        "height" : 320,
        "url" : "https://i.scdn.co/image/ab6761610000517466b27eccb69756f8eceabc23",
        "width" : 320
      }, {
        "height" : 160,
        "url" : "https://i.scdn.co/image/ab6761610000f17866b27eccb69756f8eceabc23",
        "width" : 160
      } ],
      "name" : "Glass Animals",
      "popularity" : 72,
      "type" : "artist",
      "uri" : "spotify:artist:4yvcSjfu4PC0CYQyLy4wSq"
    }, {
      "external_urls" : {
        "spotify" : "https://open.spotify.com/artist/2dBj3prW7gP9bCCOIQeDUf"
      },
      "followers" : {
        "href" : null,
        "total" : 0
      },
      "genres" : [ "alternative hip hop", "mashup" ],
      "href" : "https://api.spotify.com/v1/artists/2dBj3prW7gP9bCCOIQeDUf",
      "id" : "2dBj3prW7gP9bCCOIQeDUf",
      "images" : [ {
        "height" : 640,
        "url" : "https://i.scdn.co/image/ab6761610000e5eb02b986f57904bca3190d8f2b",
        "width" : 640
      }, {
        "height" : 320,
        "url" : "https://i.scdn.co/image/ab6761610000517402b986f57904bca3190d8f2b",
        "width" : 320
      }, {
        "height" : 160,
        "url" : "https://i.scdn.co/image/ab6761610000f17802b986f57904bca3190d8f2b",
        "width" : 160
      } ],
      "name" : "Danger Mouse",
      "popularity" : 57,
      "type" : "artist",
      "uri" : "spotify:artist:2dBj3prW7gP9bCCOIQeDUf"
    }, {
      "external_urls" : {
        "spotify" : "https://open.spotify.com/artist/13ubrt8QOOCPljQ2FL1Kca"
      },
      "followers" : {
        "href" : null,
        "total" : 0
      },
      "genres" : [ "east coast hip hop", "hip hop", "rap", "trap" ],
      "href" : "https://api.spotify.com/v1/artists/13ubrt8QOOCPljQ2FL1Kca",
      "id" : "13ubrt8QOOCPljQ2FL1Kca",
      "images" : [ {
        "height" : 640,
        "url" : "https://i.scdn.co/image/ab6761610000e5eb5c58c41a506a0d6b32cc6cad",
        "width" : 640
      }, {
        "height" : 320,
        "url" : "https://i.scdn.co/image/ab676161000051745c58c41a506a0d6b32cc6cad",
        "width" : 320
      }, {
        "height" : 160,
        "url" : "https://i.scdn.co/image/ab6761610000f1785c58c41a506a0d6b32cc6cad",
        "width" : 160
      } ],
      "name" : "A$AP Rocky",
      "popularity" : 80,
      "type" : "artist",
      "uri" : "spotify:artist:13ubrt8QOOCPljQ2FL1Kca"
    } ],
    "total" : 50,
    "limit" : 20,
    "offset" : 0,
    "href" : "https://api.spotify.com/v1/me/top/artists?time_range=long_term",
    "next" : "https://api.spotify.com/v1/me/top/artists?limit=20&offset=20&time_range=long_term",
    "previous" : null
  }
}