{
  "data" : {
    "items" : [ {
      "external_urls" : {
        "spotify" : "https://open.spotify.com/artist/6USv9qhCn6zfxlBQIYJ9qs"
      },
      "followers" : {
        "href" : null,
        "total" : 0
      },
      "genres" : [ "alternative pop rock", "pov: indie" ],
      "href" : "https://api.spotify.com/v1/artists/6USv9qhCn6zfxlBQIYJ9qs",
      "id" : "6USv9qhCn6zfxlBQIYJ9qs",
      "images" : [ {
        "height" : 640,
        "url" : "https://i.scdn.co/image/ab6761610000e5ebbe491d3676793a1697c61254",
        "width" : 640
      }, {
        "height" : 320,
        "url" : "https://i.scdn.co/image/ab67616100005174be491d3676793a1697c61254",
        "width" : 320
      }, {
        "height" : 160,
        "url" : "https://i.scdn.co/image/ab6761610000f178be491d3676793a1697c61254",
        "width" : 160
      } ],
      "name" : "Dominic Fike",
      "popularity" : 74,
      "type" : "artist",
      "uri" : "spotify:artist:6USv9qhCn6zfxlBQIYJ9qs"
    }, {
      "external_urls" : {
        "spotify" : "https://open.spotify.com/artist/7ItbAZITSFxSy5LJChXe18"
      },
      "followers" : {
        "href" : null,
        "total" : 0
      },
      "genres" : [ "vapor twitch" ],
      "href" : "https://api.spotify.com/v1/artists/7ItbAZITSFxSy5LJChXe18",
      "id" : "7ItbAZITSFxSy5LJChXe18",
      "images" : [ {
        "height" : 640,
        "url" : "https://i.scdn.co/image/ab6761610000e5eb190f89e50cecaeaee5c50a35",
        "width" : 640
      }, {
        "height" : 320,
        "url" : "https://i.scdn.co/image/ab67616100005174190f89e50cecaeaee5c50a35",
        "width" : 320
      }, {
        "height" : 160,
        "url" : "https://i.scdn.co/image/ab6761610000f178190f89e50cecaeaee5c50a35",
        "width" : 160
      } ],
      "name" : "ford.",
      "popularity" : 47,
      "type" : "artist",
      "uri" : "spotify:artist:7ItbAZITSFxSy5LJChXe18"
    }, {
      "external_urls" : {
        "spotify" : "https://open.spotify.com/artist/2YqJwmohaNjg9lg51flSax"
      },
      "followers" : {
        "href" : null,
        "total" : 0
      },
      "genres" : [ "indie r&b" ],
      "href" : "https://api.spotify.com/v1/artists/2YqJwmohaNjg9lg51flSax",
      "id" : "2YqJwmohaNjg9lg51flSax",
      "images" : [ {
        "height" : 640,
        "url" : "https://i.scdn.co/image/ab6761610000e5eb3b15be0692c4ab71c608d940",
        "width" : 640
      }, {
        "height" : 320,
        "url" : "https://i.scdn.co/image/ab676161000051743b15be0692c4ab71c608d940",
        "width" : 320
      }, {
        "height" : 160,
        "url" : "https://i.scdn.co/image/ab6761610000f1783b15be0692c4ab71c608d940",
        "width" : 160
      } ],
      "name" : "Chiiild",
      "popularity" : 44,
      "type" : "artist",
      "uri" : "spotify:artist:2YqJwmohaNjg9lg51flSax"
    }, {
      "external_urls" : {
        "spotify" : "https://open.spotify.com/artist/1t20wYnTiAT0Bs7H1hv9Wt"
      },
      "followers" : {
        "href" : null,
        "total" : 0
      },
      "genres" : [ "indie poptimism" ],
      "href" : "https://api.spotify.com/v1/artists/1t20wYnTiAT0Bs7H1hv9Wt",
      "id" : "1t20wYnTiAT0Bs7H1hv9Wt",
      "images" : [ {
        "height" : 640,
        "url" : "https://i.scdn.co/image/ab6761610000e5eb4c32f7043d79950ca79a7b0c",
        "width" : 640
      }, {
        "height" : 320,
        "url" : "https://i.scdn.co/image/ab676161000051744c32f7043d79950ca79a7b0c",
        "width" : 320
      }, {
        "height" : 160,
        "url" : "https://i.scdn.co/image/ab6761610000f1784c32f7043d79950ca79a7b0c",
        "width" : 160
      } ],
      "name" : "EDEN",
      "popularity" : 58,
      "type" : "artist",
      "uri" : "spotify:artist:1t20wYnTiAT0Bs7H1hv9Wt"
    }, {
      "external_urls" : {
        "spotify" : "https://open.spotify.com/artist/6U3ybJ9UHNKEdsH7ktGBZ7"
      },
      "followers" : {
        "href" : null,
        "total" : 0
      },
      "genres" : [ "hip hop", "pop rap", "rap", "underground hip hop" ],
      "href" : "https://api.spotify.com/v1/artists/6U3ybJ9UHNKEdsH7ktGBZ7",
      "id" : "6U3ybJ9UHNKEdsH7ktGBZ7",
      "images" : [ {
        "height" : 640,
        "url" : "https://i.scdn.co/image/ab6761610000e5eb8f0270ec23a53f3c1fe91849",
        "width" : 640
      }, {
        "height" : 320,
        "url" : "https://i.scdn.co/image/ab676161000051748f0270ec23a53f3c1fe91849",
        "width" : 320
      }, {
        "height" : 160,
        "url" : "https://i.scdn.co/image/ab6761610000f1788f0270ec23a53f3c1fe91849",
        "width" : 160
      } ],
      "name" : "JID",
      "popularity" : 75,
      "type" : "artist",
      "uri" : "spotify:artist:6U3ybJ9UHNKEdsH7ktGBZ7"
    }, {
      "external_urls" : {
        "spotify" : "https://open.spotify.com/artist/06HL4z0CvFAxyc27GXpf02"
      },
      "followers" : {
        "href" : null,
        "total" : 0
      },
      "genres" : [ "pop" ],
      "href" : "https://api.spotify.com/v1/artists/06HL4z0CvFAxyc27GXpf02",
      "id" : "06HL4z0CvFAxyc27GXpf02",
      "images" : [ {
        "height" : 640,
        "url" : "https://i.scdn.co/image/ab6761610000e5eb859e4c14fa59296c8649e0e4",
        "width" : 640
      }, {
        "height" : 320,
        "url" : "https://i.scdn.co/image/ab67616100005174859e4c14fa59296c8649e0e4",
        "width" : 320
      }, {
        "height" : 160,
        "url" : "https://i.scdn.co/image/ab6761610000f178859e4c14fa59296c8649e0e4",
        "width" : 160
      } ],
      "name" : "Taylor Swift",
      "popularity" : 100,
      "type" : "artist",
      "uri" : "spotify:artist:06HL4z0CvFAxyc27GXpf02"
    }, {
      "external_urls" : {
        "spotify" : "https://open.spotify.com/artist/1ikID9RZZMvkuBGDWrqajq"
      },
      "followers" : {
        "href" : null,
        "total" : 0
      },
      "genres" : [ "future bass", "pop edm", "swedish electropop", "vapor twitch" ],
      "href" : "https://api.spotify.com/v1/artists/1ikID9RZZMvkuBGDWrqajq",
      "id" : "1ikID9RZZMvkuBGDWrqajq",
      "images" : [ {
        "height" : 640,
        "url" : "https://i.scdn.co/image/ab6761610000e5eb560b6188567f6a0eb44eb5e4",
        "width" : 640
      }, {
        "height" : 320,
        "url" : "https://i.scdn.co/image/ab67616100005174560b6188567f6a0eb44eb5e4",
        "width" : 320
      }, {
        "height" : 160,
        "url" : "https://i.scdn.co/image/ab6761610000f178560b6188567f6a0eb44eb5e4",
        "width" : 160
      } ],
      "name" : "Kasbo",
      "popularity" : 50,
      "type" : "artist",
      "uri" : "spotify:artist:1ikID9RZZMvkuBGDWrqajq"
    }, {
      "external_urls" : {
        "spotify" : "https://open.spotify.com/artist/3nFkdlSjzX9mRTtwJOzDYB"
      },
      "followers" : {
        "href" : null,
        "total" : 0
      },
      "genres" : [ "east coast hip hop", "gangster rap", "hip hop", "pop rap", "rap" ],
      "href" : "https://api.spotify.com/v1/artists/3nFkdlSjzX9mRTtwJOzDYB",
      "id" : "3nFkdlSjzX9mRTtwJOzDYB",
      "images" : [ {
        "height" : 640,
        "url" : "https://i.scdn.co/image/ab6761610000e5ebc75afcd5a9027f60eaebb5e4",
        "width" : 640
      }, {
        "height" : 320,
        "url" : "https://i.scdn.co/image/ab67616100005174c75afcd5a9027f60eaebb5e4",
        "width" : 320
      }, {
        "height" : 160,
        "url" : "https://i.scdn.co/image/ab6761610000f178c75afcd5a9027f60eaebb5e4",
        "width" : 160
      } ],
      "name" : "JAY-Z",
      "popularity" : 81,
      "type" : "artist",
      "uri" : "spotify:artist:3nFkdlSjzX9mRTtwJOzDYB"
    }, {
      "external_urls" : {
        "spotify" : "https://open.spotify.com/artist/5BhFZpE8kUGZJiKOsYjLQM"
      },
      "followers" : {
        "href" : null,
        "total" : 0
      },
      "genres" : [ "hyperpop" ],
      "href" : "https://api.spotify.com/v1/artists/5BhFZpE8kUGZJiKOsYjLQM",
      "id" : "5BhFZpE8kUGZJiKOsYjLQM",
      "images" : [ {
        "height" : 640,
        "url" : "https://i.scdn.co/image/ab6761610000e5ebec03859f0cca1114f6eb7693",
        "width" : 640
      }, {
        "height" : 320,
        "url" : "https://i.scdn.co/image/ab67616100005174ec03859f0cca1114f6eb7693",
        "width" : 320
      }, {
        "height" : 160,
        "url" : "https://i.scdn.co/image/ab6761610000f178ec03859f0cca1114f6eb7693",
        "width" : 160
      } ],
      "name" : "Yeek",
      "popularity" : 48,
      "type" : "artist",
      "uri" : "spotify:artist:5BhFZpE8kUGZJiKOsYjLQM"
    }, {
      "external_urls" : {
        "spotify" : "https://open.spotify.com/artist/3hOdow4ZPmrby7Q1wfPLEy"
      },
      "followers" : {
        "href" : null,
        "total" : 0
      },
      "genres" : [ ],
      "href" : "https://api.spotify.com/v1/artists/3hOdow4ZPmrby7Q1wfPLEy",
      "id" : "3hOdow4ZPmrby7Q1wfPLEy",
      "images" : [ {
        "height" : 640,
        "url" : "https://i.scdn.co/image/ab6761610000e5ebf8c9dc118374b25e9829e86f",
        "width" : 640
      }, {
        "height" : 320,
        "url" : "https://i.scdn.co/image/ab67616100005174f8c9dc118374b25e9829e86f",
        "width" : 320
      }, {
        "height" : 160,
        "url" : "https://i.scdn.co/image/ab6761610000f178f8c9dc118374b25e9829e86f",
        "width" : 160
      } ],
      "name" : "Aries",
      "popularity" : 55,
      "type" : "artist",
      "uri" : "spotify:artist:3hOdow4ZPmrby7Q1wfPLEy"
    }, {
      "external_urls" : {
        "spotify" : "https://open.spotify.com/artist/3TVXtAsR1Inumwj472S9r4"
      },
      "followers" : {
        "href" : null,
        "total" : 0
      },
      "genres" : [ "canadian hip hop", "canadian pop", "hip hop", "pop rap", "rap" ],
      "href" : "https://api.spotify.com/v1/artists/3TVXtAsR1Inumwj472S9r4",
      "id" : "3TVXtAsR1Inumwj472S9r4",
      "images" : [ {
        "height" : 640,
        "url" : "https://i.scdn.co/image/ab6761610000e5eb4293385d324db8558179afd9",
        "width" : 640
      }, {
        "height" : 320,
        "url" : "https://i.scdn.co/image/ab676161000051744293385d324db8558179afd9",
        "width" : 320
      }, {
        "height" : 160,
        "url" : "https://i.scdn.co/image/ab6761610000f1784293385d324db8558179afd9",
        "width" : 160
      } ],
      "name" : "Drake",
      "popularity" : 95,
      "type" : "artist",
      "uri" : "spotify:artist:3TVXtAsR1Inumwj472S9r4"
    }, {
      "external_urls" : {
        "spotify" : "https://open.spotify.com/artist/4LLpKhyESsyAXpc4laK94U"
      },
      "followers" : {
        "href" : null,
        "total" : 0
      },
      "genres" : [ "hip hop", "pittsburgh rap", "pop rap", "rap" ],
      "href" : "https://api.spotify.com/v1/artists/4LLpKhyESsyAXpc4laK94U",
      "id" : "4LLpKhyESsyAXpc4laK94U",
      "images" : [ {
        "height" : 640,
        "url" : "https://i.scdn.co/image/ab6761610000e5ebed3b89aa602145fde71a163a",
        "width" : 640
      }, {
        "height" : 320,
        "url" : "https://i.scdn.co/image/ab67616100005174ed3b89aa602145fde71a163a",
        "width" : 320
      }, {
        "height" : 160,
        "url" : "https://i.scdn.co/image/ab6761610000f178ed3b89aa602145fde71a163a",
        "width" : 160
      } ],
      "name" : "Mac Miller",
      "popularity" : 80,
      "type" : "artist",
      "uri" : "spotify:artist:4LLpKhyESsyAXpc4laK94U"
    }, {
      "external_urls" : {
        "spotify" : "https://open.spotify.com/artist/5cj0lLjcoR7YOSnhnX0Po5"
      },
      "followers" : {
        "href" : null,
        "total" : 0
      },
      "genres" : [ "dance pop", "pop" ],
      "href" : "https://api.spotify.com/v1/artists/5cj0lLjcoR7YOSnhnX0Po5",
      "id" : "5cj0lLjcoR7YOSnhnX0Po5",
      "images" : [ {
        "height" : 640,
        "url" : "https://i.scdn.co/image/ab6761610000e5eb7f6d6cac38d494e87692af99",
        "width" : 640
      }, {
        "height" : 320,
        "url" : "https://i.scdn.co/image/ab676161000051747f6d6cac38d494e87692af99",
        "width" : 320
      }, {
        "height" : 160,
        "url" : "https://i.scdn.co/image/ab6761610000f1787f6d6cac38d494e87692af99",
        "width" : 160
      } ],
      "name" : "Doja Cat",
      "popularity" : 86,
      "type" : "artist",
      "uri" : "spotify:artist:5cj0lLjcoR7YOSnhnX0Po5"
    }, {
      "external_urls" : {
        "spotify" : "https://open.spotify.com/artist/5zixe6AbgXPqt4c1uSl94L"
      },
      "followers" : {
        "href" : null,
        "total" : 0
      },
      "genres" : [ "singer-songwriter pop" ],
      "href" : "https://api.spotify.com/v1/artists/5zixe6AbgXPqt4c1uSl94L",
      "id" : "5zixe6AbgXPqt4c1uSl94L",
      "images" : [ {
        "height" : 640,
        "url" : "https://i.scdn.co/image/ab6761610000e5eb00835d03b5d032c8b22153f6",
        "width" : 640
      }, {
        "height" : 320,
        "url" : "https://i.scdn.co/image/ab6761610000517400835d03b5d032c8b22153f6",
        "width" : 320
      }, {
        "height" : 160,
        "url" : "https://i.scdn.co/image/ab6761610000f17800835d03b5d032c8b22153f6",
        "width" : 160
      } ],
      "name" : "Connor Price",
      "popularity" : 70,
      "type" : "artist",
      "uri" : "spotify:artist:5zixe6AbgXPqt4c1uSl94L"
    }, {
      "external_urls" : {
        "spotify" : "https://open.spotify.com/artist/6l3HvQ5sa6mXTsMTB19rO5"
      },
      "followers" : {
        "href" : null,
        "total" : 0
      },
      "genres" : [ "conscious hip hop", "hip hop", "north carolina hip hop", "rap" ],
      "href" : "https://api.spotify.com/v1/artists/6l3HvQ5sa6mXTsMTB19rO5",
      "id" : "6l3HvQ5sa6mXTsMTB19rO5",
      "images" : [ {
        "height" : 640,
        "url" : "https://i.scdn.co/image/ab6761610000e5ebadd503b411a712e277895c8a",
        "width" : 640
      }, {
        "height" : 320,
        "url" : "https://i.scdn.co/image/ab67616100005174add503b411a712e277895c8a",
        "width" : 320
      }, {
        "height" : 160,
        "url" : "https://i.scdn.co/image/ab6761610000f178add503b411a712e277895c8a",
        "width" : 160
      } ],
      "name" : "J. Cole",
      "popularity" : 84,
      "type" : "artist",
      "uri" : "spotify:artist:6l3HvQ5sa6mXTsMTB19rO5"
    }, {
      "external_urls" : {
        "spotify" : "https://open.spotify.com/artist/7vNNmjV14SKQzlQAEg0BXP"
      },
      "followers" : {
        "href" : null,
        "total" : 0
      },
      "genres" : [ "indie hip hop", "modern indie pop" ],
      "href" : "https://api.spotify.com/v1/artists/7vNNmjV14SKQzlQAEg0BXP",
      "id" : "7vNNmjV14SKQzlQAEg0BXP",
      "images" : [ {
        "height" : 640,
        "url" : "https://i.scdn.co/image/ab6761610000e5ebeb9f2455bf73ecae2282dee6",
        "width" : 640
      }, {
        "height" : 320,
        "url" : "https://i.scdn.co/image/ab67616100005174eb9f2455bf73ecae2282dee6",
        "width" : 320
      }, {
        "height" : 160,
        "url" : "https://i.scdn.co/image/ab6761610000f178eb9f2455bf73ecae2282dee6",
        "width" : 160
      } ],
      "name" : "Jean Dawson",
      "popularity" : 51,
      "type" : "artist",
      "uri" : "spotify:artist:7vNNmjV14SKQzlQAEg0BXP"
    }, {
      "external_urls" : {
        "spotify" : "https://open.spotify.com/artist/0eDvMgVFoNV3TpwtrVCoTj"
      },
      "followers" : {
        "href" : null,
        "total" : 0
      },
      "genres" : [ "brooklyn drill", "rap" ],
      "href" : "https://api.spotify.com/v1/artists/0eDvMgVFoNV3TpwtrVCoTj",
      "id" : "0eDvMgVFoNV3TpwtrVCoTj",
      "images" : [ {
        "height" : 640,
        "url" : "https://i.scdn.co/image/ab6761610000e5eb597f9edd2cd1a892d4412b09",
        "width" : 640
      }, {
        "height" : 320,
        "url" : "https://i.scdn.co/image/ab67616100005174597f9edd2cd1a892d4412b09",
        "width" : 320
      }, {
        "height" : 160,
        "url" : "https://i.scdn.co/image/ab6761610000f178597f9edd2cd1a892d4412b09",
        "width" : 160
      } ],
      "name" : "Pop Smoke",
      "popularity" : 79,
      "type" : "artist",
      "uri" : "spotify:artist:0eDvMgVFoNV3TpwtrVCoTj"
    }, {
      "external_urls" : {
        "spotify" : "https://open.spotify.com/artist/20qISvAhX20dpIbOOzGK3q"
      },
      "followers" : {
        "href" : null,
        "total" : 0
      },
      "genres" : [ "conscious hip hop", "east coast hip hop", "gangster rap", "hardcore hip hop", "hip hop", "queens hip hop", "rap" ],
      "href" : "https://api.spotify.com/v1/artists/20qISvAhX20dpIbOOzGK3q",
      "id" : "20qISvAhX20dpIbOOzGK3q",
      "images" : [ {
        "height" : 640,
        "url" : "https://i.scdn.co/image/ab6761610000e5eb153198caeef9e3bda92f9285",
        "width" : 640
      }, {
        "height" : 320,
        "url" : "https://i.scdn.co/image/ab67616100005174153198caeef9e3bda92f9285",
        "width" : 320
      }, {
        "height" : 160,
        "url" : "https://i.scdn.co/image/ab6761610000f178153198caeef9e3bda92f9285",
        "width" : 160
      } ],
      "name" : "Nas",
      "popularity" : 71,
      "type" : "artist",
      "uri" : "spotify:artist:20qISvAhX20dpIbOOzGK3q"
    }, {
      "external_urls" : {
        "spotify" : "https://open.spotify.com/artist/5K4W6rqBFWDnAN6FQUkS6x"
      },
      "followers" : {
        "href" : null,
        "total" : 0
      },
      "genres" : [ "chicago rap", "hip hop", "rap" ],
      "href" : "https://api.spotify.com/v1/artists/5K4W6rqBFWDnAN6FQUkS6x",
      "id" : "5K4W6rqBFWDnAN6FQUkS6x",
      "images" : [ {
        "height" : 640,
        "url" : "https://i.scdn.co/image/ab6761610000e5eb867008a971fae0f4d913f63a",
        "width" : 640
      }, {
        "height" : 320,
        "url" : "https://i.scdn.co/image/ab67616100005174867008a971fae0f4d913f63a",
        "width" : 320
      }, {
        "height" : 160,
        "url" : "https://i.scdn.co/image/ab6761610000f178867008a971fae0f4d913f63a",
        "width" : 160
      } ],
      "name" : "Kanye West",
      "popularity" : 89,
      "type" : "artist",
      "uri" : "spotify:artist:5K4W6rqBFWDnAN6FQUkS6x"
    }, {
      "external_urls" : {
        "spotify" : "https://open.spotify.com/artist/0lawSNBxNgJFQYJnQzLH8c"
      },
      "followers" : {
        "href" : null,
        "total" : 0
      },
      "genres" : [ "lo-fi rap", "pov: indie" ],
      "href" : "https://api.spotify.com/v1/artists/0lawSNBxNgJFQYJnQzLH8c",
      "id" : "0lawSNBxNgJFQYJnQzLH8c",
      "images" : [ {
        "height" : 640,
        "url" : "https://i.scdn.co/image/ab6761610000e5ebb2832f950e436a01999ed58e",
        "width" : 640
      }, {
        "height" : 320,
        "url" : "https://i.scdn.co/image/ab67616100005174b2832f950e436a01999ed58e",
        "width" : 320
      }, {
        "height" : 160,
        "url" : "https://i.scdn.co/image/ab6761610000f178b2832f950e436a01999ed58e",
        "width" : 160
      } ],
      "name" : "khai dreams",
      "popularity" : 56,
      "type" : "artist",
      "uri" : "spotify:artist:0lawSNBxNgJFQYJnQzLH8c"
    } ],
    "total" : 47,
    "limit" : 20,
    "offset" : 0,
    "href" : "https://api.spotify.com/v1/me/top/artists?time_range=short_term",
    "next" : "https://api.spotify.com/v1/me/top/artists?limit=20&offset=20&time_range=short_term",
    "previous" : null
  }
}